%!PS-Adobe-3.0 EPSF-3.0
%%Creator: graphviz version 2.40.1 (20161225.0304)
%%Title: %3
%%Pages: 1
%%BoundingBox: 36 36 314 756
%%EndComments
save
%%BeginProlog
/DotDict 200 dict def
DotDict begin

/setupLatin1 {
mark
/EncodingVector 256 array def
 EncodingVector 0

ISOLatin1Encoding 0 255 getinterval putinterval
EncodingVector 45 /hyphen put

% Set up ISO Latin 1 character encoding
/starnetISO {
        dup dup findfont dup length dict begin
        { 1 index /FID ne { def }{ pop pop } ifelse
        } forall
        /Encoding EncodingVector def
        currentdict end definefont
} def
/Times-Roman starnetISO def
/Times-Italic starnetISO def
/Times-Bold starnetISO def
/Times-BoldItalic starnetISO def
/Helvetica starnetISO def
/Helvetica-Oblique starnetISO def
/Helvetica-Bold starnetISO def
/Helvetica-BoldOblique starnetISO def
/Courier starnetISO def
/Courier-Oblique starnetISO def
/Courier-Bold starnetISO def
/Courier-BoldOblique starnetISO def
cleartomark
} bind def

%%BeginResource: procset graphviz 0 0
/coord-font-family /Times-Roman def
/default-font-family /Times-Roman def
/coordfont coord-font-family findfont 8 scalefont def

/InvScaleFactor 1.0 def
/set_scale {
       dup 1 exch div /InvScaleFactor exch def
       scale
} bind def

% styles
/solid { [] 0 setdash } bind def
/dashed { [9 InvScaleFactor mul dup ] 0 setdash } bind def
/dotted { [1 InvScaleFactor mul 6 InvScaleFactor mul] 0 setdash } bind def
/invis {/fill {newpath} def /stroke {newpath} def /show {pop newpath} def} bind def
/bold { 2 setlinewidth } bind def
/filled { } bind def
/unfilled { } bind def
/rounded { } bind def
/diagonals { } bind def
/tapered { } bind def

% hooks for setting color 
/nodecolor { sethsbcolor } bind def
/edgecolor { sethsbcolor } bind def
/graphcolor { sethsbcolor } bind def
/nopcolor {pop pop pop} bind def

/beginpage {	% i j npages
	/npages exch def
	/j exch def
	/i exch def
	/str 10 string def
	npages 1 gt {
		gsave
			coordfont setfont
			0 0 moveto
			(\() show i str cvs show (,) show j str cvs show (\)) show
		grestore
	} if
} bind def

/set_font {
	findfont exch
	scalefont setfont
} def

% draw text fitted to its expected width
/alignedtext {			% width text
	/text exch def
	/width exch def
	gsave
		width 0 gt {
			[] 0 setdash
			text stringwidth pop width exch sub text length div 0 text ashow
		} if
	grestore
} def

/boxprim {				% xcorner ycorner xsize ysize
		4 2 roll
		moveto
		2 copy
		exch 0 rlineto
		0 exch rlineto
		pop neg 0 rlineto
		closepath
} bind def

/ellipse_path {
	/ry exch def
	/rx exch def
	/y exch def
	/x exch def
	matrix currentmatrix
	newpath
	x y translate
	rx ry scale
	0 0 1 0 360 arc
	setmatrix
} bind def

/endpage { showpage } bind def
/showpage { } def

/layercolorseq
	[	% layer color sequence - darkest to lightest
		[0 0 0]
		[.2 .8 .8]
		[.4 .8 .8]
		[.6 .8 .8]
		[.8 .8 .8]
	]
def

/layerlen layercolorseq length def

/setlayer {/maxlayer exch def /curlayer exch def
	layercolorseq curlayer 1 sub layerlen mod get
	aload pop sethsbcolor
	/nodecolor {nopcolor} def
	/edgecolor {nopcolor} def
	/graphcolor {nopcolor} def
} bind def

/onlayer { curlayer ne {invis} if } def

/onlayers {
	/myupper exch def
	/mylower exch def
	curlayer mylower lt
	curlayer myupper gt
	or
	{invis} if
} def

/curlayer 0 def

%%EndResource
%%EndProlog
%%BeginSetup
14 default-font-family set_font
% /arrowlength 10 def
% /arrowwidth 5 def

% make sure pdfmark is harmless for PS-interpreters other than Distiller
/pdfmark where {pop} {userdict /pdfmark /cleartomark load put} ifelse
% make '<<' and '>>' safe on PS Level 1 devices
/languagelevel where {pop languagelevel}{1} ifelse
2 lt {
    userdict (<<) cvn ([) cvn load put
    userdict (>>) cvn ([) cvn load put
} if

%%EndSetup
setupLatin1
%%Page: 1 1
%%PageBoundingBox: 36 36 314 756
%%PageOrientation: Portrait
0 0 1 beginpage
gsave
36 36 278 720 boxprim clip newpath
0.36018 0.36018 set_scale 0 rotate 103.95 103.95 translate
0 0 0 graphcolor
14 /Times-Roman set_font
358.0437 7.8 moveto 49 (Project 1) alignedtext
% start
gsave
0 0.21032 0.98824 nodecolor
newpath 705.1164 1991 moveto
651.1164 1991 lineto
651.1164 1955 lineto
705.1164 1955 lineto
closepath fill
1 setlinewidth
filled
0 0 0 nodecolor
newpath 705.1164 1991 moveto
651.1164 1991 lineto
651.1164 1955 lineto
705.1164 1955 lineto
closepath stroke
0 0 0 nodecolor
14 /Times-Roman set_font
666.1164 1969.3 moveto 24 (start) alignedtext
grestore
% whileMain
gsave
0.60234 0.22353 1 nodecolor
newpath 678.1164 1919 moveto
608.4042 1901 lineto
678.1164 1883 lineto
747.8286 1901 lineto
closepath fill
1 setlinewidth
filled
0 0 0 nodecolor
newpath 678.1164 1919 moveto
608.4042 1901 lineto
678.1164 1883 lineto
747.8286 1901 lineto
closepath stroke
0 0 0 nodecolor
14 /Times-Roman set_font
648.1164 1897.3 moveto 60 (whileMain) alignedtext
grestore
% start->whileMain
gsave
1 setlinewidth
0 0 0 edgecolor
newpath 678.1164 1954.8314 moveto
678.1164 1947.131 678.1164 1937.9743 678.1164 1929.4166 curveto
stroke
0 0 0 edgecolor
newpath 681.6165 1929.4132 moveto
678.1164 1919.4133 lineto
674.6165 1929.4133 lineto
closepath fill
1 setlinewidth
solid
0 0 0 edgecolor
newpath 681.6165 1929.4132 moveto
678.1164 1919.4133 lineto
674.6165 1929.4133 lineto
closepath stroke
grestore
% end
gsave
0 0.21032 0.98824 nodecolor
newpath 518.1164 59 moveto
464.1164 59 lineto
464.1164 23 lineto
518.1164 23 lineto
closepath fill
1 setlinewidth
filled
0 0 0 nodecolor
newpath 518.1164 59 moveto
464.1164 59 lineto
464.1164 23 lineto
518.1164 23 lineto
closepath stroke
0 0 0 nodecolor
14 /Times-Roman set_font
481.1164 37.3 moveto 20 (end) alignedtext
grestore
% input1
gsave
0.60227 0.40183 0.85882 nodecolor
newpath 636.3637 1735 moveto
440.3047 1735 lineto
389.869 1659 lineto
585.928 1659 lineto
closepath fill
1 setlinewidth
filled
0 0 0 nodecolor
newpath 636.3637 1735 moveto
440.3047 1735 lineto
389.869 1659 lineto
585.928 1659 lineto
closepath stroke
0 0 0 nodecolor
14 /Times-Roman set_font
480.1164 1700.8 moveto 66 (Which part ) alignedtext
0 0 0 nodecolor
14 /Times-Roman set_font
461.6164 1685.8 moveto 103 (Spring, Seat, Lock) alignedtext
grestore
% if1
gsave
0.60234 0.22353 1 nodecolor
newpath 521.1164 1623 moveto
463.1164 1585 lineto
521.1164 1547 lineto
579.1164 1585 lineto
closepath fill
1 setlinewidth
filled
0 0 0 nodecolor
newpath 521.1164 1623 moveto
463.1164 1585 lineto
521.1164 1547 lineto
579.1164 1585 lineto
closepath stroke
0 0 0 nodecolor
14 /Times-Roman set_font
500.1164 1588.8 moveto 42 (correct ) alignedtext
0 0 0 nodecolor
14 /Times-Roman set_font
504.1164 1573.8 moveto 34 (input?) alignedtext
grestore
% input1->if1
gsave
1 setlinewidth
0 0 0 edgecolor
newpath 515.8471 1658.7692 moveto
516.472 1650.0212 517.1429 1640.6277 517.7897 1631.5728 curveto
stroke
0 0 0 edgecolor
newpath 521.2845 1631.7698 moveto
518.5059 1621.5458 lineto
514.3023 1631.271 lineto
closepath fill
1 setlinewidth
solid
0 0 0 edgecolor
newpath 521.2845 1631.7698 moveto
518.5059 1621.5458 lineto
514.3023 1631.271 lineto
closepath stroke
grestore
% while1
gsave
0.60234 0.22353 1 nodecolor
newpath 656.1164 1847 moveto
580.1164 1809 lineto
656.1164 1771 lineto
732.1164 1809 lineto
closepath fill
1 setlinewidth
filled
0 0 0 nodecolor
newpath 656.1164 1847 moveto
580.1164 1809 lineto
656.1164 1771 lineto
732.1164 1809 lineto
closepath stroke
0 0 0 nodecolor
14 /Times-Roman set_font
626.6164 1812.8 moveto 59 (Input error) alignedtext
0 0 0 nodecolor
14 /Times-Roman set_font
626.1164 1797.8 moveto 60 (check loop) alignedtext
grestore
% if1->while1
gsave
1 setlinewidth
0 0 0 edgecolor
newpath 560.3663 1597.3416 moveto
589.035 1608.5699 626.0897 1628.173 645.1164 1659 curveto
664.2764 1690.043 665.8 1731.877 663.2304 1763.4788 curveto
stroke
0 0 0 edgecolor
newpath 659.7137 1763.4796 moveto
662.2216 1773.7733 lineto
666.6803 1764.1624 lineto
closepath fill
1 setlinewidth
solid
0 0 0 edgecolor
newpath 659.7137 1763.4796 moveto
662.2216 1773.7733 lineto
666.6803 1764.1624 lineto
closepath stroke
grestore
% while2
gsave
0.60234 0.22353 1 nodecolor
newpath 521.1164 1511 moveto
445.1164 1473 lineto
521.1164 1435 lineto
597.1164 1473 lineto
closepath fill
1 setlinewidth
filled
0 0 0 nodecolor
newpath 521.1164 1511 moveto
445.1164 1473 lineto
521.1164 1435 lineto
597.1164 1473 lineto
closepath stroke
0 0 0 nodecolor
14 /Times-Roman set_font
491.6164 1476.8 moveto 59 (Input error) alignedtext
0 0 0 nodecolor
14 /Times-Roman set_font
491.1164 1461.8 moveto 60 (check loop) alignedtext
grestore
% if1->while2
gsave
1 setlinewidth
0 0 0 edgecolor
newpath 521.1164 1546.7692 moveto
521.1164 1538.5697 521.1164 1529.8032 521.1164 1521.2799 curveto
stroke
0 0 0 edgecolor
newpath 524.6165 1521.0585 moveto
521.1164 1511.0585 lineto
517.6165 1521.0585 lineto
closepath fill
1 setlinewidth
solid
0 0 0 edgecolor
newpath 524.6165 1521.0585 moveto
521.1164 1511.0585 lineto
517.6165 1521.0585 lineto
closepath stroke
grestore
% if2
gsave
0.60234 0.22353 1 nodecolor
newpath 436.1164 1287 moveto
378.1164 1249 lineto
436.1164 1211 lineto
494.1164 1249 lineto
closepath fill
1 setlinewidth
filled
0 0 0 nodecolor
newpath 436.1164 1287 moveto
378.1164 1249 lineto
436.1164 1211 lineto
494.1164 1249 lineto
closepath stroke
0 0 0 nodecolor
14 /Times-Roman set_font
415.1164 1252.8 moveto 42 (correct ) alignedtext
0 0 0 nodecolor
14 /Times-Roman set_font
419.1164 1237.8 moveto 34 (input?) alignedtext
grestore
% if2->while2
gsave
1 setlinewidth
0 0 0 edgecolor
newpath 408.0709 1268.8367 moveto
391.8853 1282.0895 373.021 1301.0787 364.1164 1323 curveto
351.4042 1354.2944 346.0263 1370.4748 364.1164 1399 curveto
384.3125 1430.8462 422.2822 1449.2405 455.8217 1459.7244 curveto
stroke
0 0 0 edgecolor
newpath 455.0218 1463.1374 moveto
465.6032 1462.6032 lineto
456.9982 1456.4221 lineto
closepath fill
1 setlinewidth
solid
0 0 0 edgecolor
newpath 455.0218 1463.1374 moveto
465.6032 1462.6032 lineto
456.9982 1456.4221 lineto
closepath stroke
grestore
% while3
gsave
0.60234 0.22353 1 nodecolor
newpath 436.1164 1175 moveto
360.1164 1137 lineto
436.1164 1099 lineto
512.1164 1137 lineto
closepath fill
1 setlinewidth
filled
0 0 0 nodecolor
newpath 436.1164 1175 moveto
360.1164 1137 lineto
436.1164 1099 lineto
512.1164 1137 lineto
closepath stroke
0 0 0 nodecolor
14 /Times-Roman set_font
406.6164 1140.8 moveto 59 (Input error) alignedtext
0 0 0 nodecolor
14 /Times-Roman set_font
406.1164 1125.8 moveto 60 (check loop) alignedtext
grestore
% if2->while3
gsave
1 setlinewidth
0 0 0 edgecolor
newpath 436.1164 1210.7692 moveto
436.1164 1202.5697 436.1164 1193.8032 436.1164 1185.2799 curveto
stroke
0 0 0 edgecolor
newpath 439.6165 1185.0585 moveto
436.1164 1175.0585 lineto
432.6165 1185.0585 lineto
closepath fill
1 setlinewidth
solid
0 0 0 edgecolor
newpath 439.6165 1185.0585 moveto
436.1164 1175.0585 lineto
432.6165 1185.0585 lineto
closepath stroke
grestore
% if3
gsave
0.60234 0.22353 1 nodecolor
newpath 341.1164 991 moveto
283.1164 953 lineto
341.1164 915 lineto
399.1164 953 lineto
closepath fill
1 setlinewidth
filled
0 0 0 nodecolor
newpath 341.1164 991 moveto
283.1164 953 lineto
341.1164 915 lineto
399.1164 953 lineto
closepath stroke
0 0 0 nodecolor
14 /Times-Roman set_font
320.1164 956.8 moveto 42 (correct ) alignedtext
0 0 0 nodecolor
14 /Times-Roman set_font
324.1164 941.8 moveto 34 (input?) alignedtext
grestore
% if3->while3
gsave
1 setlinewidth
0 0 0 edgecolor
newpath 335.7119 987.5247 moveto
333.7963 1010.1585 334.4802 1039.7503 346.1164 1063 curveto
355.9974 1082.7429 373.8115 1099.1018 390.9984 1111.3738 curveto
stroke
0 0 0 edgecolor
newpath 389.1138 1114.325 moveto
399.3478 1117.0668 lineto
393.0574 1108.5415 lineto
closepath fill
1 setlinewidth
solid
0 0 0 edgecolor
newpath 389.1138 1114.325 moveto
399.3478 1117.0668 lineto
393.0574 1108.5415 lineto
closepath stroke
grestore
% load1
gsave
0.6 0.050505 0.77647 nodecolor
newpath 382.6164 879 moveto
299.6164 879 lineto
299.6164 841 lineto
382.6164 841 lineto
closepath fill
1 setlinewidth
filled
0 0 0 nodecolor
newpath 382.6164 879 moveto
299.6164 879 lineto
299.6164 841 lineto
382.6164 841 lineto
closepath stroke
0 0 0 nodecolor
14 /Times-Roman set_font
313.6164 863.8 moveto 55 (load Dict ) alignedtext
0 0 0 nodecolor
14 /Times-Roman set_font
307.6164 848.8 moveto 67 (of questions) alignedtext
grestore
% if3->load1
gsave
1 setlinewidth
0 0 0 edgecolor
newpath 341.1164 914.905 moveto
341.1164 906.3249 341.1164 897.3498 341.1164 889.2013 curveto
stroke
0 0 0 edgecolor
newpath 344.6165 889.068 moveto
341.1164 879.0681 lineto
337.6165 889.0681 lineto
closepath fill
1 setlinewidth
solid
0 0 0 edgecolor
newpath 344.6165 889.068 moveto
341.1164 879.0681 lineto
337.6165 889.0681 lineto
closepath stroke
grestore
% if4
gsave
0.60234 0.22353 1 nodecolor
newpath 394.1164 805 moveto
316.1164 767 lineto
394.1164 729 lineto
472.1164 767 lineto
closepath fill
1 setlinewidth
filled
0 0 0 nodecolor
newpath 394.1164 805 moveto
316.1164 767 lineto
394.1164 729 lineto
472.1164 767 lineto
closepath stroke
0 0 0 nodecolor
14 /Times-Roman set_font
363.1164 770.8 moveto 62 (which part ) alignedtext
0 0 0 nodecolor
14 /Times-Roman set_font
372.1164 755.8 moveto 44 (selected) alignedtext
grestore
% while53
gsave
0.60234 0.22353 1 nodecolor
newpath 562.1164 693 moveto
486.1164 655 lineto
562.1164 617 lineto
638.1164 655 lineto
closepath fill
1 setlinewidth
filled
0 0 0 nodecolor
newpath 562.1164 693 moveto
486.1164 655 lineto
562.1164 617 lineto
638.1164 655 lineto
closepath stroke
0 0 0 nodecolor
14 /Times-Roman set_font
532.6164 658.8 moveto 59 (Input error) alignedtext
0 0 0 nodecolor
14 /Times-Roman set_font
532.1164 643.8 moveto 60 (check loop) alignedtext
grestore
% if4->while53
gsave
1 setlinewidth
0 0 0 edgecolor
newpath 427.3077 744.8724 moveto
454.0859 727.0203 491.8987 701.8118 520.6653 682.6341 curveto
stroke
0 0 0 edgecolor
newpath 522.9011 685.35 moveto
529.2802 676.8908 lineto
519.0182 679.5257 lineto
closepath fill
1 setlinewidth
solid
0 0 0 edgecolor
newpath 522.9011 685.35 moveto
529.2802 676.8908 lineto
519.0182 679.5257 lineto
closepath stroke
grestore
% while51
gsave
0.60234 0.22353 1 nodecolor
newpath 392.1164 693 moveto
316.1164 655 lineto
392.1164 617 lineto
468.1164 655 lineto
closepath fill
1 setlinewidth
filled
0 0 0 nodecolor
newpath 392.1164 693 moveto
316.1164 655 lineto
392.1164 617 lineto
468.1164 655 lineto
closepath stroke
0 0 0 nodecolor
14 /Times-Roman set_font
362.6164 658.8 moveto 59 (Input error) alignedtext
0 0 0 nodecolor
14 /Times-Roman set_font
362.1164 643.8 moveto 60 (check loop) alignedtext
grestore
% if4->while51
gsave
1 setlinewidth
0 0 0 edgecolor
newpath 393.4392 729.0819 moveto
393.2894 720.6892 393.1287 711.6895 392.9727 702.9563 curveto
stroke
0 0 0 edgecolor
newpath 396.4708 702.8149 moveto
392.7928 692.879 lineto
389.472 702.94 lineto
closepath fill
1 setlinewidth
solid
0 0 0 edgecolor
newpath 396.4708 702.8149 moveto
392.7928 692.879 lineto
389.472 702.94 lineto
closepath stroke
grestore
% while52
gsave
0.60234 0.22353 1 nodecolor
newpath 184.1164 693 moveto
108.1164 655 lineto
184.1164 617 lineto
260.1164 655 lineto
closepath fill
1 setlinewidth
filled
0 0 0 nodecolor
newpath 184.1164 693 moveto
108.1164 655 lineto
184.1164 617 lineto
260.1164 655 lineto
closepath stroke
0 0 0 nodecolor
14 /Times-Roman set_font
154.6164 658.8 moveto 59 (Input error) alignedtext
0 0 0 nodecolor
14 /Times-Roman set_font
154.1164 643.8 moveto 60 (check loop) alignedtext
grestore
% if4->while52
gsave
1 setlinewidth
0 0 0 edgecolor
newpath 356.5726 746.9766 moveto
321.226 728.1251 268.1932 699.841 230.2769 679.619 curveto
stroke
0 0 0 edgecolor
newpath 231.4535 676.2798 moveto
220.9829 674.6621 lineto
228.1593 682.4563 lineto
closepath fill
1 setlinewidth
solid
0 0 0 edgecolor
newpath 231.4535 676.2798 moveto
220.9829 674.6621 lineto
228.1593 682.4563 lineto
closepath stroke
grestore
% input2
gsave
0.60227 0.40183 0.85882 nodecolor
newpath 700.7306 1399 moveto
440.457 1399 lineto
373.5021 1323 lineto
633.7757 1323 lineto
closepath fill
1 setlinewidth
filled
0 0 0 nodecolor
newpath 700.7306 1399 moveto
440.457 1399 lineto
373.5021 1323 lineto
633.7757 1323 lineto
closepath stroke
0 0 0 nodecolor
14 /Times-Roman set_font
492.1164 1364.8 moveto 90 (Which material ) alignedtext
0 0 0 nodecolor
14 /Times-Roman set_font
466.1164 1349.8 moveto 142 (musicW, berylC, stain302) alignedtext
grestore
% input2->if2
gsave
1 setlinewidth
0 0 0 edgecolor
newpath 502.6404 1322.7692 moveto
490.22 1308.9961 476.3569 1293.6231 464.5141 1280.4905 curveto
stroke
0 0 0 edgecolor
newpath 467.0971 1278.1286 moveto
457.8008 1273.0461 lineto
461.8986 1282.8165 lineto
closepath fill
1 setlinewidth
solid
0 0 0 edgecolor
newpath 467.0971 1278.1286 moveto
457.8008 1273.0461 lineto
461.8986 1282.8165 lineto
closepath stroke
grestore
% input3
gsave
0.60227 0.40183 0.85882 nodecolor
newpath 530.9575 1063 moveto
391.2219 1063 lineto
355.2752 1027 lineto
495.0108 1027 lineto
closepath fill
1 setlinewidth
filled
0 0 0 nodecolor
newpath 530.9575 1063 moveto
391.2219 1063 lineto
355.2752 1027 lineto
495.0108 1027 lineto
closepath stroke
0 0 0 nodecolor
14 /Times-Roman set_font
405.1164 1041.3 moveto 76 (mm or inches) alignedtext
grestore
% input3->if3
gsave
1 setlinewidth
0 0 0 edgecolor
newpath 422.9644 1026.8238 moveto
408.7945 1014.0431 389.5356 996.6723 373.2591 981.9915 curveto
stroke
0 0 0 edgecolor
newpath 375.3138 979.1314 moveto
365.5438 975.0326 lineto
370.6254 984.3294 lineto
closepath fill
1 setlinewidth
solid
0 0 0 edgecolor
newpath 375.3138 979.1314 moveto
365.5438 975.0326 lineto
370.6254 984.3294 lineto
closepath stroke
grestore
% input52
gsave
0.60227 0.40183 0.85882 nodecolor
newpath 159.7767 581 moveto
33.0549 581 lineto
.456 505 lineto
127.1778 505 lineto
closepath fill
1 setlinewidth
filled
0 0 0 nodecolor
newpath 159.7767 581 moveto
33.0549 581 lineto
.456 505 lineto
127.1778 505 lineto
closepath stroke
0 0 0 nodecolor
14 /Times-Roman set_font
49.6164 546.8 moveto 61 (dimension ) alignedtext
0 0 0 nodecolor
14 /Times-Roman set_font
54.1164 531.8 moveto 52 (questions) alignedtext
grestore
% if52
gsave
0.60234 0.22353 1 nodecolor
newpath 116.1164 469 moveto
33.1164 431 lineto
116.1164 393 lineto
199.1164 431 lineto
closepath fill
1 setlinewidth
filled
0 0 0 nodecolor
newpath 116.1164 469 moveto
33.1164 431 lineto
116.1164 393 lineto
199.1164 431 lineto
closepath stroke
0 0 0 nodecolor
14 /Times-Roman set_font
82.6164 434.8 moveto 67 (check input ) alignedtext
0 0 0 nodecolor
14 /Times-Roman set_font
90.6164 419.8 moveto 51 (for errors) alignedtext
grestore
% input52->if52
gsave
1 setlinewidth
0 0 0 edgecolor
newpath 92.4048 504.7692 moveto
95.6155 494.7805 99.0966 483.9503 102.3774 473.7435 curveto
stroke
0 0 0 edgecolor
newpath 105.718 474.7877 moveto
105.4461 464.1964 lineto
99.0538 472.6456 lineto
closepath fill
1 setlinewidth
solid
0 0 0 edgecolor
newpath 105.718 474.7877 moveto
105.4461 464.1964 lineto
99.0538 472.6456 lineto
closepath stroke
grestore
% input52->load1
gsave
1 setlinewidth
0 0 0 edgecolor
newpath 76.6787 581.2304 moveto
75.6309 613.3367 78.5893 659.2457 99.1164 693 curveto
143.4957 765.9767 233.2419 814.8991 290.0936 840.0361 curveto
stroke
0 0 0 edgecolor
newpath 289.0477 843.3972 moveto
299.615 844.16 lineto
291.8298 836.9738 lineto
closepath fill
1 setlinewidth
solid
0 0 0 edgecolor
newpath 289.0477 843.3972 moveto
299.615 844.16 lineto
291.8298 836.9738 lineto
closepath stroke
grestore
% input51
gsave
0.60227 0.40183 0.85882 nodecolor
newpath 375.7767 581 moveto
249.0549 581 lineto
216.456 505 lineto
343.1778 505 lineto
closepath fill
1 setlinewidth
filled
0 0 0 nodecolor
newpath 375.7767 581 moveto
249.0549 581 lineto
216.456 505 lineto
343.1778 505 lineto
closepath stroke
0 0 0 nodecolor
14 /Times-Roman set_font
265.6164 546.8 moveto 61 (dimension ) alignedtext
0 0 0 nodecolor
14 /Times-Roman set_font
270.1164 531.8 moveto 52 (questions) alignedtext
grestore
% if51
gsave
0.60234 0.22353 1 nodecolor
newpath 366.1164 469 moveto
283.1164 431 lineto
366.1164 393 lineto
449.1164 431 lineto
closepath fill
1 setlinewidth
filled
0 0 0 nodecolor
newpath 366.1164 469 moveto
283.1164 431 lineto
366.1164 393 lineto
449.1164 431 lineto
closepath stroke
0 0 0 nodecolor
14 /Times-Roman set_font
332.6164 434.8 moveto 67 (check input ) alignedtext
0 0 0 nodecolor
14 /Times-Roman set_font
340.6164 419.8 moveto 51 (for errors) alignedtext
grestore
% input51->if51
gsave
1 setlinewidth
0 0 0 edgecolor
newpath 320.0106 504.7692 moveto
327.2066 493.2556 335.1013 480.6241 342.2927 469.1179 curveto
stroke
0 0 0 edgecolor
newpath 345.2996 470.9105 moveto
347.6317 460.5755 lineto
339.3636 467.2005 lineto
closepath fill
1 setlinewidth
solid
0 0 0 edgecolor
newpath 345.2996 470.9105 moveto
347.6317 460.5755 lineto
339.3636 467.2005 lineto
closepath stroke
grestore
% input51->load1
gsave
1 setlinewidth
0 0 0 edgecolor
newpath 291.7793 581.3255 moveto
287.2221 633.2898 283.6044 728.4012 307.1164 805 curveto
310.0193 814.4572 314.9526 823.9209 320.1744 832.2659 curveto
stroke
0 0 0 edgecolor
newpath 317.4182 834.4418 moveto
325.8715 840.8287 lineto
323.2462 830.5643 lineto
closepath fill
1 setlinewidth
solid
0 0 0 edgecolor
newpath 317.4182 834.4418 moveto
325.8715 840.8287 lineto
323.2462 830.5643 lineto
closepath stroke
grestore
% input53
gsave
0.60227 0.40183 0.85882 nodecolor
newpath 731.7767 581 moveto
605.0549 581 lineto
572.456 505 lineto
699.1778 505 lineto
closepath fill
1 setlinewidth
filled
0 0 0 nodecolor
newpath 731.7767 581 moveto
605.0549 581 lineto
572.456 505 lineto
699.1778 505 lineto
closepath stroke
0 0 0 nodecolor
14 /Times-Roman set_font
621.6164 546.8 moveto 61 (dimension ) alignedtext
0 0 0 nodecolor
14 /Times-Roman set_font
626.1164 531.8 moveto 52 (questions) alignedtext
grestore
% if53
gsave
0.60234 0.22353 1 nodecolor
newpath 616.1164 469 moveto
533.1164 431 lineto
616.1164 393 lineto
699.1164 431 lineto
closepath fill
1 setlinewidth
filled
0 0 0 nodecolor
newpath 616.1164 469 moveto
533.1164 431 lineto
616.1164 393 lineto
699.1164 431 lineto
closepath stroke
0 0 0 nodecolor
14 /Times-Roman set_font
582.6164 434.8 moveto 67 (check input ) alignedtext
0 0 0 nodecolor
14 /Times-Roman set_font
590.6164 419.8 moveto 51 (for errors) alignedtext
grestore
% input53->if53
gsave
1 setlinewidth
0 0 0 edgecolor
newpath 639.8279 504.7692 moveto
636.6172 494.7805 633.1361 483.9503 629.8553 473.7435 curveto
stroke
0 0 0 edgecolor
newpath 633.1789 472.6456 moveto
626.7866 464.1964 lineto
626.5147 474.7877 lineto
closepath fill
1 setlinewidth
solid
0 0 0 edgecolor
newpath 633.1789 472.6456 moveto
626.7866 464.1964 lineto
626.5147 474.7877 lineto
closepath stroke
grestore
% input53->load1
gsave
1 setlinewidth
0 0 0 edgecolor
newpath 659.9854 581.2639 moveto
664.5003 613.1797 666.0354 658.7999 647.1164 693 curveto
594.514 788.0895 465.1666 831.9445 392.6071 849.6567 curveto
stroke
0 0 0 edgecolor
newpath 391.6858 846.278 moveto
382.7594 851.9851 lineto
393.2965 853.0902 lineto
closepath fill
1 setlinewidth
solid
0 0 0 edgecolor
newpath 391.6858 846.278 moveto
382.7594 851.9851 lineto
393.2965 853.0902 lineto
closepath stroke
grestore
% if51->while51
gsave
1 setlinewidth
0 0 0 edgecolor
newpath 376.291 464.5933 moveto
379.684 477.1553 383.1082 491.6207 385.1164 505 curveto
390.1874 538.786 391.9009 577.2889 392.3656 606.8259 curveto
stroke
0 0 0 edgecolor
newpath 388.8664 606.9181 moveto
392.4814 616.8771 lineto
395.8659 606.8374 lineto
closepath fill
1 setlinewidth
solid
0 0 0 edgecolor
newpath 388.8664 606.9181 moveto
392.4814 616.8771 lineto
395.8659 606.8374 lineto
closepath stroke
grestore
% calc1
gsave
0.6 0.050505 0.77647 nodecolor
newpath 422.1164 357 moveto
310.1164 357 lineto
310.1164 319 lineto
422.1164 319 lineto
closepath fill
1 setlinewidth
filled
0 0 0 nodecolor
newpath 422.1164 357 moveto
310.1164 357 lineto
310.1164 319 lineto
422.1164 319 lineto
closepath stroke
0 0 0 nodecolor
14 /Times-Roman set_font
340.1164 341.8 moveto 52 (calculate ) alignedtext
0 0 0 nodecolor
14 /Times-Roman set_font
318.1164 326.8 moveto 96 (volume and mass) alignedtext
grestore
% if51->calc1
gsave
1 setlinewidth
0 0 0 edgecolor
newpath 366.1164 392.905 moveto
366.1164 384.3249 366.1164 375.3498 366.1164 367.2013 curveto
stroke
0 0 0 edgecolor
newpath 369.6165 367.068 moveto
366.1164 357.0681 lineto
362.6165 367.0681 lineto
closepath fill
1 setlinewidth
solid
0 0 0 edgecolor
newpath 369.6165 367.068 moveto
366.1164 357.0681 lineto
362.6165 367.0681 lineto
closepath stroke
grestore
% if52->while52
gsave
1 setlinewidth
0 0 0 edgecolor
newpath 140.8042 458.1423 moveto
151.3579 471.336 162.7044 487.996 169.1164 505 curveto
181.4655 537.7489 185.0058 577.2163 185.5707 607.4458 curveto
stroke
0 0 0 edgecolor
newpath 182.073 607.7564 moveto
185.656 617.727 lineto
189.0728 607.6983 lineto
closepath fill
1 setlinewidth
solid
0 0 0 edgecolor
newpath 182.073 607.7564 moveto
185.656 617.727 lineto
189.0728 607.6983 lineto
closepath stroke
grestore
% calc2
gsave
0.6 0.050505 0.77647 nodecolor
newpath 172.1164 357 moveto
60.1164 357 lineto
60.1164 319 lineto
172.1164 319 lineto
closepath fill
1 setlinewidth
filled
0 0 0 nodecolor
newpath 172.1164 357 moveto
60.1164 357 lineto
60.1164 319 lineto
172.1164 319 lineto
closepath stroke
0 0 0 nodecolor
14 /Times-Roman set_font
90.1164 341.8 moveto 52 (calculate ) alignedtext
0 0 0 nodecolor
14 /Times-Roman set_font
68.1164 326.8 moveto 96 (volume and mass) alignedtext
grestore
% if52->calc2
gsave
1 setlinewidth
0 0 0 edgecolor
newpath 116.1164 392.905 moveto
116.1164 384.3249 116.1164 375.3498 116.1164 367.2013 curveto
stroke
0 0 0 edgecolor
newpath 119.6165 367.068 moveto
116.1164 357.0681 lineto
112.6165 367.0681 lineto
closepath fill
1 setlinewidth
solid
0 0 0 edgecolor
newpath 119.6165 367.068 moveto
116.1164 357.0681 lineto
112.6165 367.0681 lineto
closepath stroke
grestore
% if53->while53
gsave
1 setlinewidth
0 0 0 edgecolor
newpath 590.982 457.5458 moveto
580.1928 470.7377 568.7798 487.566 563.1164 505 curveto
552.1404 538.7877 552.5781 579.1596 555.3821 609.5043 curveto
stroke
0 0 0 edgecolor
newpath 551.9367 610.2103 moveto
556.4577 619.7921 lineto
558.8988 609.4824 lineto
closepath fill
1 setlinewidth
solid
0 0 0 edgecolor
newpath 551.9367 610.2103 moveto
556.4577 619.7921 lineto
558.8988 609.4824 lineto
closepath stroke
grestore
% calc3
gsave
0.6 0.050505 0.77647 nodecolor
newpath 672.1164 357 moveto
560.1164 357 lineto
560.1164 319 lineto
672.1164 319 lineto
closepath fill
1 setlinewidth
filled
0 0 0 nodecolor
newpath 672.1164 357 moveto
560.1164 357 lineto
560.1164 319 lineto
672.1164 319 lineto
closepath stroke
0 0 0 nodecolor
14 /Times-Roman set_font
590.1164 341.8 moveto 52 (calculate ) alignedtext
0 0 0 nodecolor
14 /Times-Roman set_font
568.1164 326.8 moveto 96 (volume and mass) alignedtext
grestore
% if53->calc3
gsave
1 setlinewidth
0 0 0 edgecolor
newpath 616.1164 392.905 moveto
616.1164 384.3249 616.1164 375.3498 616.1164 367.2013 curveto
stroke
0 0 0 edgecolor
newpath 619.6165 367.068 moveto
616.1164 357.0681 lineto
612.6165 367.0681 lineto
closepath fill
1 setlinewidth
solid
0 0 0 edgecolor
newpath 619.6165 367.068 moveto
616.1164 357.0681 lineto
612.6165 367.0681 lineto
closepath stroke
grestore
% whileMain->while1
gsave
1 setlinewidth
0 0 0 edgecolor
newpath 673.9783 1883.6955 moveto
671.8818 1874.9281 669.2315 1863.8452 666.6188 1852.9192 curveto
stroke
0 0 0 edgecolor
newpath 669.9766 1851.9119 moveto
664.2468 1843.0001 lineto
663.1686 1853.5399 lineto
closepath fill
1 setlinewidth
solid
0 0 0 edgecolor
newpath 669.9766 1851.9119 moveto
664.2468 1843.0001 lineto
663.1686 1853.5399 lineto
closepath stroke
grestore
% while1->input1
gsave
1 setlinewidth
0 0 0 edgecolor
newpath 626.4867 1785.7935 moveto
610.0931 1772.9539 589.1655 1756.563 569.7642 1741.3675 curveto
stroke
0 0 0 edgecolor
newpath 571.8786 1738.5779 moveto
561.8477 1735.1672 lineto
567.5623 1744.0888 lineto
closepath fill
1 setlinewidth
solid
0 0 0 edgecolor
newpath 571.8786 1738.5779 moveto
561.8477 1735.1672 lineto
567.5623 1744.0888 lineto
closepath stroke
grestore
% while2->input2
gsave
1 setlinewidth
0 0 0 edgecolor
newpath 526.2228 1437.2546 moveto
527.4989 1428.322 528.8885 1418.5947 530.235 1409.1694 curveto
stroke
0 0 0 edgecolor
newpath 533.7223 1409.5067 moveto
531.6717 1399.1122 lineto
526.7926 1408.5167 lineto
closepath fill
1 setlinewidth
solid
0 0 0 edgecolor
newpath 533.7223 1409.5067 moveto
531.6717 1399.1122 lineto
526.7926 1408.5167 lineto
closepath stroke
grestore
% while3->input3
gsave
1 setlinewidth
0 0 0 edgecolor
newpath 438.9031 1100.3748 moveto
439.5893 1091.3552 440.3138 1081.8334 440.9648 1073.2773 curveto
stroke
0 0 0 edgecolor
newpath 444.4729 1073.3032 moveto
441.7417 1063.0665 lineto
437.4931 1072.7721 lineto
closepath fill
1 setlinewidth
solid
0 0 0 edgecolor
newpath 444.4729 1073.3032 moveto
441.7417 1063.0665 lineto
437.4931 1072.7721 lineto
closepath stroke
grestore
% while53->input53
gsave
1 setlinewidth
0 0 0 edgecolor
newpath 583.9028 627.8879 moveto
593.2084 616.3076 604.3378 602.4577 614.8808 589.3375 curveto
stroke
0 0 0 edgecolor
newpath 617.8124 591.277 moveto
621.348 581.2895 lineto
612.3558 586.8922 lineto
closepath fill
1 setlinewidth
solid
0 0 0 edgecolor
newpath 617.8124 591.277 moveto
621.348 581.2895 lineto
612.3558 586.8922 lineto
closepath stroke
grestore
% while51->input51
gsave
1 setlinewidth
0 0 0 edgecolor
newpath 369.122 628.1732 moveto
359.0134 616.3799 346.852 602.1916 335.3797 588.8073 curveto
stroke
0 0 0 edgecolor
newpath 337.8907 586.3586 moveto
328.7254 581.0438 lineto
332.5759 590.9142 lineto
closepath fill
1 setlinewidth
solid
0 0 0 edgecolor
newpath 337.8907 586.3586 moveto
328.7254 581.0438 lineto
332.5759 590.9142 lineto
closepath stroke
grestore
% while52->input52
gsave
1 setlinewidth
0 0 0 edgecolor
newpath 159.9953 629.0234 moveto
148.8568 617.0282 135.2954 602.4236 122.532 588.6784 curveto
stroke
0 0 0 edgecolor
newpath 124.9131 586.0989 moveto
115.5437 581.1526 lineto
119.7835 590.8621 lineto
closepath fill
1 setlinewidth
solid
0 0 0 edgecolor
newpath 124.9131 586.0989 moveto
115.5437 581.1526 lineto
119.7835 590.8621 lineto
closepath stroke
grestore
% load1->if4
gsave
1 setlinewidth
0 0 0 edgecolor
newpath 352.098 840.7303 moveto
357.8484 830.6399 365.1041 817.9082 371.9609 805.8765 curveto
stroke
0 0 0 edgecolor
newpath 375.1845 807.2888 moveto
377.095 796.8676 lineto
369.1028 803.8228 lineto
closepath fill
1 setlinewidth
solid
0 0 0 edgecolor
newpath 375.1845 807.2888 moveto
377.095 796.8676 lineto
369.1028 803.8228 lineto
closepath stroke
grestore
% output1
gsave
0.60227 0.40183 0.85882 nodecolor
newpath 482.3492 283 moveto
297.4488 283 lineto
249.8835 207 lineto
434.7839 207 lineto
closepath fill
1 setlinewidth
filled
0 0 0 nodecolor
newpath 482.3492 283 moveto
297.4488 283 lineto
249.8835 207 lineto
434.7839 207 lineto
closepath stroke
0 0 0 nodecolor
14 /Times-Roman set_font
340.6164 248.8 moveto 51 (print out ) alignedtext
0 0 0 nodecolor
14 /Times-Roman set_font
318.1164 233.8 moveto 96 (volume and mass) alignedtext
grestore
% calc1->output1
gsave
1 setlinewidth
0 0 0 edgecolor
newpath 366.1164 318.7303 moveto
366.1164 311.2311 366.1164 302.273 366.1164 293.2275 curveto
stroke
0 0 0 edgecolor
newpath 369.6165 293.0509 moveto
366.1164 283.051 lineto
362.6165 293.051 lineto
closepath fill
1 setlinewidth
solid
0 0 0 edgecolor
newpath 369.6165 293.0509 moveto
366.1164 283.051 lineto
362.6165 293.051 lineto
closepath stroke
grestore
% output2
gsave
0.60227 0.40183 0.85882 nodecolor
newpath 232.3492 283 moveto
47.4488 283 lineto
-.1165 207 lineto
184.7839 207 lineto
closepath fill
1 setlinewidth
filled
0 0 0 nodecolor
newpath 232.3492 283 moveto
47.4488 283 lineto
-.1165 207 lineto
184.7839 207 lineto
closepath stroke
0 0 0 nodecolor
14 /Times-Roman set_font
90.6164 248.8 moveto 51 (print out ) alignedtext
0 0 0 nodecolor
14 /Times-Roman set_font
68.1164 233.8 moveto 96 (volume and mass) alignedtext
grestore
% calc2->output2
gsave
1 setlinewidth
0 0 0 edgecolor
newpath 116.1164 318.7303 moveto
116.1164 311.2311 116.1164 302.273 116.1164 293.2275 curveto
stroke
0 0 0 edgecolor
newpath 119.6165 293.0509 moveto
116.1164 283.051 lineto
112.6165 293.051 lineto
closepath fill
1 setlinewidth
solid
0 0 0 edgecolor
newpath 119.6165 293.0509 moveto
116.1164 283.051 lineto
112.6165 293.051 lineto
closepath stroke
grestore
% output3
gsave
0.60227 0.40183 0.85882 nodecolor
newpath 732.3492 283 moveto
547.4488 283 lineto
499.8835 207 lineto
684.7839 207 lineto
closepath fill
1 setlinewidth
filled
0 0 0 nodecolor
newpath 732.3492 283 moveto
547.4488 283 lineto
499.8835 207 lineto
684.7839 207 lineto
closepath stroke
0 0 0 nodecolor
14 /Times-Roman set_font
590.6164 248.8 moveto 51 (print out ) alignedtext
0 0 0 nodecolor
14 /Times-Roman set_font
568.1164 233.8 moveto 96 (volume and mass) alignedtext
grestore
% calc3->output3
gsave
1 setlinewidth
0 0 0 edgecolor
newpath 616.1164 318.7303 moveto
616.1164 311.2311 616.1164 302.273 616.1164 293.2275 curveto
stroke
0 0 0 edgecolor
newpath 619.6165 293.0509 moveto
616.1164 283.051 lineto
612.6165 293.051 lineto
closepath fill
1 setlinewidth
solid
0 0 0 edgecolor
newpath 619.6165 293.0509 moveto
616.1164 283.051 lineto
612.6165 293.051 lineto
closepath stroke
grestore
% ifMain
gsave
0.60234 0.22353 1 nodecolor
newpath 491.1164 171 moveto
409.1164 133 lineto
491.1164 95 lineto
573.1164 133 lineto
closepath fill
1 setlinewidth
filled
0 0 0 nodecolor
newpath 491.1164 171 moveto
409.1164 133 lineto
491.1164 95 lineto
573.1164 133 lineto
closepath stroke
0 0 0 nodecolor
14 /Times-Roman set_font
460.6164 136.8 moveto 61 (ask user if ) alignedtext
0 0 0 nodecolor
14 /Times-Roman set_font
458.1164 121.8 moveto 66 (they're done) alignedtext
grestore
% output1->ifMain
gsave
1 setlinewidth
0 0 0 edgecolor
newpath 408.7846 206.7692 moveto
423.942 193.1882 440.8355 178.0516 455.356 165.0413 curveto
stroke
0 0 0 edgecolor
newpath 458.0405 167.3354 moveto
463.1527 158.0555 lineto
453.3693 162.1219 lineto
closepath fill
1 setlinewidth
solid
0 0 0 edgecolor
newpath 458.0405 167.3354 moveto
463.1527 158.0555 lineto
453.3693 162.1219 lineto
closepath stroke
grestore
% output2->ifMain
gsave
1 setlinewidth
0 0 0 edgecolor
newpath 193.7717 221.2962 moveto
209.4395 216.5409 225.7999 211.5949 241.1164 207 curveto
305.9461 187.5514 380.336 165.5755 430.9991 150.6603 curveto
stroke
0 0 0 edgecolor
newpath 432.2005 153.9552 moveto
440.8055 147.7742 lineto
430.2242 147.24 lineto
closepath fill
1 setlinewidth
solid
0 0 0 edgecolor
newpath 432.2005 153.9552 moveto
440.8055 147.7742 lineto
430.2242 147.24 lineto
closepath stroke
grestore
% output3->ifMain
gsave
1 setlinewidth
0 0 0 edgecolor
newpath 573.4481 206.7692 moveto
558.2907 193.1882 541.3972 178.0516 526.8767 165.0413 curveto
stroke
0 0 0 edgecolor
newpath 528.8634 162.1219 moveto
519.08 158.0555 lineto
524.1922 167.3354 lineto
closepath fill
1 setlinewidth
solid
0 0 0 edgecolor
newpath 528.8634 162.1219 moveto
519.08 158.0555 lineto
524.1922 167.3354 lineto
closepath stroke
grestore
% ifMain->end
gsave
1 setlinewidth
0 0 0 edgecolor
newpath 491.1164 94.783 moveto
491.1164 86.3656 491.1164 77.5901 491.1164 69.6284 curveto
stroke
0 0 0 edgecolor
newpath 494.6165 69.3861 moveto
491.1164 59.3861 lineto
487.6165 69.3861 lineto
closepath fill
1 setlinewidth
solid
0 0 0 edgecolor
newpath 494.6165 69.3861 moveto
491.1164 59.3861 lineto
487.6165 69.3861 lineto
closepath stroke
grestore
% ifMain->whileMain
gsave
1 setlinewidth
0 0 0 edgecolor
newpath 551.4906 143.1961 moveto
617.232 155.5718 716.342 178.3814 741.1164 207 curveto
779.6216 251.4801 760.1164 279.1686 760.1164 338 curveto
760.1164 1697 760.1164 1697 760.1164 1697 curveto
760.1164 1764.1994 772.9839 1787.8374 741.1164 1847 curveto
733.4011 1861.3235 720.2319 1873.5187 707.9224 1882.6758 curveto
stroke
0 0 0 edgecolor
newpath 705.7812 1879.9028 moveto
699.6155 1888.5188 lineto
709.8084 1885.6283 lineto
closepath fill
1 setlinewidth
solid
0 0 0 edgecolor
newpath 705.7812 1879.9028 moveto
699.6155 1888.5188 lineto
709.8084 1885.6283 lineto
closepath stroke
grestore
endpage
showpage
grestore
%%PageTrailer
%%EndPage: 1
%%Trailer
end
restore
%%EOF
